…
Read in bibliographies:

``` r
file <- "https://raw.githubusercontent.com/jmbarbone/bib-references/master/references.bib"
bib <- read_bib(file)
tibble::as_tibble(bib)
#> # A tibble: 137 x 33
#>    key   field author journal title year  issn  month number pages volume doi  
#>    <chr> <chr> <chr>  <chr>   <chr> <chr> <chr> <chr> <chr>  <chr> <chr>  <chr>
#>  1 ames~ arti~ Ames,~ Journa~ "The~ 2006  0092~ aug   4      440-~ 40     10.1~
#>  2 ande~ arti~ Ander~ Psycho~ "Eff~ 2001  <NA>  <NA>  5      353-~ 12     10.1~
#>  3 aydu~ arti~ Ayduk~ Journa~ "Reg~ 2000  <NA>  <NA>  5      776   79     10.1~
#>  4 bake~ arti~ Baker~ Nature~ "1,5~ 2016  <NA>  <NA>  7604   452   533    10.1~
#>  5 begl~ arti~ Begle~ Circul~ "Rep~ 2015  <NA>  <NA>  1      116-~ 116    10.1~
#>  6 benj~ arti~ Benja~ Curren~ "RET~ 2018  2352~ <NA>  <NA>   93--~ 19     10.1~
#>  7 benj~ arti~ Benja~ Person~ "Eff~ 2018  <NA>  <NA>  4      347-~ 22     10.1~
#>  8 brau~ book  Braud~ <NA>    "ESP~ 2002  <NA>  <NA>  <NA>   <NA>  <NA>   <NA> 
#>  9 burg~ arti~ Burge~ Motiva~ "The~ 1979  <NA>  <NA>  4      381-~ 3      10.1~
#> 10 bush~ arti~ Bushm~ Aggres~ "{\\~ 2018  <NA>  sep   1      33--~ 45     10.1~
#> # ... with 127 more rows, and 21 more variables: publisher <chr>, note <chr>,
#> #   abstract <chr>, eprint <chr>, isbn <chr>, url <chr>, keywords <chr>,
#> #   websitetitle <chr>, urldate <chr>, organization <chr>, address <chr>,
#> #   language <chr>, day <chr>, retraction <chr>, school <chr>,
#> #   institution <chr>, howpublished <chr>, comment <chr>, event <chr>,
#> #   booktitle <chr>, conference <chr>
```
…
